cleaned_texts,classification,subject,prof
The teacher acts like he is the smartest person in the world. Very arrogant when talking to students,Negative,math,teacher 1
He is a good teacher. Thank you sir,Positive,math,teacher 1
I have been learning math from teacher this summer and it has been a great experience. He is a very thoughtful teacher who puts a lot of thought into how he/she presents the material.,Positive,math,teacher 1
Teacher is decent. He can improve more,Neutral,math,teacher 1
Boring teacher,Negative,math,teacher 1
I learned nothing from him.,Negative,math,teacher 1
Teacher is always arrogant. Very bad example,Positive,science,teacher 1
The teacher did a good job explaining our topics,Positive,science,teacher 1
The teacher did a good job explaining our topics,Positive,science,teacher 2
The teacher did a good job explaining our topics,Positive,science,teacher 2
The teacher did a good job explaining our topics,Positive,science,teacher 2
The teacher did a good job explaining our topics,Positive,science,teacher 2
The teacher did a good job explaining our topics,Positive,science,teacher 2
The teacher did a good job explaining our topics,Positive,science,teacher 3
The teacher did a good job explaining our topics,Positive,science,teacher 3
The teacher did a good job explaining our topics,Positive,science,teacher 3
The teacher did a good job explaining our topics,Positive,science,teacher 3
The teacher did a good job explaining our topics,Positive,science,teacher 3
The teacher did a good job explaining our topics,Positive,english,teacher 3
The teacher did a good job explaining our topics,Positive,english,teacher 3
The teacher did a good job explaining our topics,Positive,english,teacher 3
The teacher did a good job explaining our topics,Positive,english,teacher 3
The teacher did a good job explaining our topics,Positive,english,teacher 3
The teacher did a good job explaining our topics,Positive,english,teacher 3
The teacher did a good job explaining our topics,Positive,english,teacher 3
The teacher did a good job explaining our topics,Positive,english,teacher 3
The teacher did a good job explaining our topics,Positive,history,teacher 3
The teacher did a good job explaining our topics,Positive,history,teacher 3
The teacher did a good job explaining our topics,Positive,history,teacher 3
The teacher did a good job explaining our topics,Positive,history,teacher 3
The teacher did a good job explaining our topics,Positive,history,teacher 3
The teacher did a good job explaining our topics,Positive,history,teacher 3
